LOG_FILE.log
UVM_INFO /home/runner/adder_scoreboard.sv(39) @ 5: uvm_test_top.env_h.scoreboard_h [write_drv STIM] in1=0000  in2=0000 rst=1
UVM_INFO /home/runner/adder_scoreboard.sv(55) @ 10: uvm_test_top.env_h.scoreboard_h [write_mon OUT ] in1=0000  in2=0000 rst=1  out=   00 
UVM_INFO /home/runner/adder_scoreboard.sv(69) @ 10: uvm_test_top.env_h.scoreboard_h [PASS ] in1=0000  in2=0000 rst=1  out=   00 
UVM_INFO /home/runner/adder_scoreboard.sv(39) @ 15: uvm_test_top.env_h.scoreboard_h [write_drv STIM] in1=0110  in2=1000 rst=0
UVM_INFO /home/runner/adder_scoreboard.sv(55) @ 20: uvm_test_top.env_h.scoreboard_h [write_mon OUT ] in1=0110  in2=1000 rst=0  out=   0e 
UVM_INFO /home/runner/adder_scoreboard.sv(69) @ 20: uvm_test_top.env_h.scoreboard_h [PASS ] in1=0110  in2=1000 rst=0  out=   0e 
UVM_INFO /home/runner/adder_scoreboard.sv(39) @ 25: uvm_test_top.env_h.scoreboard_h [write_drv STIM] in1=0011  in2=0001 rst=0
UVM_INFO /home/runner/adder_scoreboard.sv(55) @ 30: uvm_test_top.env_h.scoreboard_h [write_mon OUT ] in1=0011  in2=0001 rst=0  out=   04 
UVM_INFO /home/runner/adder_scoreboard.sv(69) @ 30: uvm_test_top.env_h.scoreboard_h [PASS ] in1=0011  in2=0001 rst=0  out=   04 
UVM_INFO /home/runner/adder_scoreboard.sv(39) @ 35: uvm_test_top.env_h.scoreboard_h [write_drv STIM] in1=1101  in2=0011 rst=0
UVM_INFO /home/runner/adder_scoreboard.sv(55) @ 40: uvm_test_top.env_h.scoreboard_h [write_mon OUT ] in1=1101  in2=0011 rst=0  out=   10 
UVM_INFO /home/runner/adder_scoreboard.sv(69) @ 40: uvm_test_top.env_h.scoreboard_h [PASS ] in1=1101  in2=0011 rst=0  out=   10 
UVM_INFO /home/runner/adder_scoreboard.sv(39) @ 45: uvm_test_top.env_h.scoreboard_h [write_drv STIM] in1=0100  in2=1110 rst=0
UVM_INFO /home/runner/adder_scoreboard.sv(55) @ 50: uvm_test_top.env_h.scoreboard_h [write_mon OUT ] in1=0100  in2=1110 rst=0  out=   12 
UVM_INFO /home/runner/adder_scoreboard.sv(69) @ 50: uvm_test_top.env_h.scoreboard_h [PASS ] in1=0100  in2=1110 rst=0  out=   12 
UVM_INFO /home/runner/adder_scoreboard.sv(39) @ 55: uvm_test_top.env_h.scoreboard_h [write_drv STIM] in1=1000  in2=0010 rst=0
UVM_INFO /home/runner/adder_scoreboard.sv(55) @ 60: uvm_test_top.env_h.scoreboard_h [write_mon OUT ] in1=1000  in2=0010 rst=0  out=   0a 
UVM_INFO /home/runner/adder_scoreboard.sv(69) @ 60: uvm_test_top.env_h.scoreboard_h [PASS ] in1=1000  in2=0010 rst=0  out=   0a 
UVM_INFO /home/runner/adder_scoreboard.sv(39) @ 65: uvm_test_top.env_h.scoreboard_h [write_drv STIM] in1=1001  in2=1111 rst=0
UVM_INFO /home/runner/adder_scoreboard.sv(55) @ 70: uvm_test_top.env_h.scoreboard_h [write_mon OUT ] in1=1001  in2=1111 rst=0  out=   18 
UVM_INFO /home/runner/adder_scoreboard.sv(69) @ 70: uvm_test_top.env_h.scoreboard_h [PASS ] in1=1001  in2=1111 rst=0  out=   18 
UVM_INFO /home/runner/adder_scoreboard.sv(39) @ 75: uvm_test_top.env_h.scoreboard_h [write_drv STIM] in1=0111  in2=0101 rst=0
UVM_INFO /home/runner/adder_scoreboard.sv(55) @ 80: uvm_test_top.env_h.scoreboard_h [write_mon OUT ] in1=0111  in2=0101 rst=0  out=   0c 
UVM_INFO /home/runner/adder_scoreboard.sv(69) @ 80: uvm_test_top.env_h.scoreboard_h [PASS ] in1=0111  in2=0101 rst=0  out=   0c 
UVM_INFO /home/runner/adder_scoreboard.sv(39) @ 85: uvm_test_top.env_h.scoreboard_h [write_drv STIM] in1=0010  in2=0100 rst=0
UVM_INFO /home/runner/adder_scoreboard.sv(55) @ 90: uvm_test_top.env_h.scoreboard_h [write_mon OUT ] in1=0010  in2=0100 rst=0  out=   06 
UVM_INFO /home/runner/adder_scoreboard.sv(69) @ 90: uvm_test_top.env_h.scoreboard_h [PASS ] in1=0010  in2=0100 rst=0  out=   06 
UVM_INFO /home/runner/adder_scoreboard.sv(39) @ 95: uvm_test_top.env_h.scoreboard_h [write_drv STIM] in1=1010  in2=1100 rst=0
UVM_INFO /home/runner/adder_scoreboard.sv(55) @ 100: uvm_test_top.env_h.scoreboard_h [write_mon OUT ] in1=1010  in2=1100 rst=0  out=   16 
UVM_INFO /home/runner/adder_scoreboard.sv(69) @ 100: uvm_test_top.env_h.scoreboard_h [PASS ] in1=1010  in2=1100 rst=0  out=   16 
UVM_INFO /home/runner/adder_scoreboard.sv(39) @ 105: uvm_test_top.env_h.scoreboard_h [write_drv STIM] in1=1111  in2=1101 rst=0
UVM_INFO /home/runner/adder_scoreboard.sv(55) @ 110: uvm_test_top.env_h.scoreboard_h [write_mon OUT ] in1=1111  in2=1101 rst=0  out=   1c 
UVM_INFO /home/runner/adder_scoreboard.sv(69) @ 110: uvm_test_top.env_h.scoreboard_h [PASS ] in1=1111  in2=1101 rst=0  out=   1c 
UVM_INFO /home/runner/adder_scoreboard.sv(39) @ 115: uvm_test_top.env_h.scoreboard_h [write_drv STIM] in1=0001  in2=0111 rst=0
UVM_INFO /home/runner/adder_scoreboard.sv(55) @ 120: uvm_test_top.env_h.scoreboard_h [write_mon OUT ] in1=0001  in2=0111 rst=0  out=   08 
UVM_INFO /home/runner/adder_scoreboard.sv(69) @ 120: uvm_test_top.env_h.scoreboard_h [PASS ] in1=0001  in2=0111 rst=0  out=   08 
UVM_INFO /home/runner/adder_scoreboard.sv(39) @ 125: uvm_test_top.env_h.scoreboard_h [write_drv STIM] in1=0000  in2=1010 rst=0
UVM_INFO /home/runner/adder_scoreboard.sv(55) @ 130: uvm_test_top.env_h.scoreboard_h [write_mon OUT ] in1=0000  in2=1010 rst=0  out=   0a 
UVM_INFO /home/runner/adder_scoreboard.sv(69) @ 130: uvm_test_top.env_h.scoreboard_h [PASS ] in1=0000  in2=1010 rst=0  out=   0a 
UVM_INFO /home/runner/adder_scoreboard.sv(39) @ 135: uvm_test_top.env_h.scoreboard_h [write_drv STIM] in1=1100  in2=0110 rst=0
UVM_INFO /home/runner/adder_scoreboard.sv(55) @ 140: uvm_test_top.env_h.scoreboard_h [write_mon OUT ] in1=1100  in2=0110 rst=0  out=   12 
UVM_INFO /home/runner/adder_scoreboard.sv(69) @ 140: uvm_test_top.env_h.scoreboard_h [PASS ] in1=1100  in2=0110 rst=0  out=   12 
UVM_INFO /home/runner/adder_scoreboard.sv(39) @ 145: uvm_test_top.env_h.scoreboard_h [write_drv STIM] in1=0101  in2=1011 rst=0
UVM_INFO /home/runner/adder_scoreboard.sv(55) @ 150: uvm_test_top.env_h.scoreboard_h [write_mon OUT ] in1=0101  in2=1011 rst=0  out=   10 
UVM_INFO /home/runner/adder_scoreboard.sv(69) @ 150: uvm_test_top.env_h.scoreboard_h [PASS ] in1=0101  in2=1011 rst=0  out=   10 
UVM_INFO /home/runner/adder_scoreboard.sv(39) @ 155: uvm_test_top.env_h.scoreboard_h [write_drv STIM] in1=1011  in2=1001 rst=0
UVM_INFO /home/runner/adder_scoreboard.sv(55) @ 160: uvm_test_top.env_h.scoreboard_h [write_mon OUT ] in1=1011  in2=1001 rst=0  out=   14 
UVM_INFO /home/runner/adder_scoreboard.sv(69) @ 160: uvm_test_top.env_h.scoreboard_h [PASS ] in1=1011  in2=1001 rst=0  out=   14 
UVM_INFO /home/runner/adder_scoreboard.sv(39) @ 165: uvm_test_top.env_h.scoreboard_h [write_drv STIM] in1=1110  in2=0000 rst=0
UVM_INFO /home/runner/adder_scoreboard.sv(55) @ 170: uvm_test_top.env_h.scoreboard_h [write_mon OUT ] in1=1110  in2=0000 rst=0  out=   0e 
UVM_INFO /home/runner/adder_scoreboard.sv(69) @ 170: uvm_test_top.env_h.scoreboard_h [PASS ] in1=1110  in2=0000 rst=0  out=   0e 
UVM_INFO /home/runner/adder_scoreboard.sv(39) @ 175: uvm_test_top.env_h.scoreboard_h [write_drv STIM] in1=1110  in2=0000 rst=0
UVM_INFO /home/runner/adder_scoreboard.sv(55) @ 180: uvm_test_top.env_h.scoreboard_h [write_mon OUT ] in1=1110  in2=0000 rst=0  out=   0e 
UVM_INFO /home/runner/adder_scoreboard.sv(69) @ 180: uvm_test_top.env_h.scoreboard_h [PASS ] in1=1110  in2=0000 rst=0  out=   0e 
UVM_INFO /home/runner/adder_scoreboard.sv(39) @ 185: uvm_test_top.env_h.scoreboard_h [write_drv STIM] in1=1011  in2=1001 rst=0
UVM_INFO /home/runner/adder_scoreboard.sv(55) @ 190: uvm_test_top.env_h.scoreboard_h [write_mon OUT ] in1=1011  in2=1001 rst=0  out=   14 
UVM_INFO /home/runner/adder_scoreboard.sv(69) @ 190: uvm_test_top.env_h.scoreboard_h [PASS ] in1=1011  in2=1001 rst=0  out=   14 
UVM_INFO /home/runner/adder_scoreboard.sv(39) @ 195: uvm_test_top.env_h.scoreboard_h [write_drv STIM] in1=0101  in2=1011 rst=0
UVM_INFO /home/runner/adder_scoreboard.sv(55) @ 200: uvm_test_top.env_h.scoreboard_h [write_mon OUT ] in1=0101  in2=1011 rst=0  out=   10 
UVM_INFO /home/runner/adder_scoreboard.sv(69) @ 200: uvm_test_top.env_h.scoreboard_h [PASS ] in1=0101  in2=1011 rst=0  out=   10 
UVM_INFO /home/runner/adder_scoreboard.sv(39) @ 205: uvm_test_top.env_h.scoreboard_h [write_drv STIM] in1=1100  in2=0110 rst=0
UVM_INFO /home/runner/adder_scoreboard.sv(55) @ 210: uvm_test_top.env_h.scoreboard_h [write_mon OUT ] in1=1100  in2=0110 rst=0  out=   12 
UVM_INFO /home/runner/adder_scoreboard.sv(69) @ 210: uvm_test_top.env_h.scoreboard_h [PASS ] in1=1100  in2=0110 rst=0  out=   12 
UVM_INFO /home/runner/adder_scoreboard.sv(39) @ 215: uvm_test_top.env_h.scoreboard_h [write_drv STIM] in1=0000  in2=1010 rst=0
UVM_INFO /home/runner/adder_scoreboard.sv(55) @ 220: uvm_test_top.env_h.scoreboard_h [write_mon OUT ] in1=0000  in2=1010 rst=0  out=   0a 
UVM_INFO /home/runner/adder_scoreboard.sv(69) @ 220: uvm_test_top.env_h.scoreboard_h [PASS ] in1=0000  in2=1010 rst=0  out=   0a 
UVM_INFO /home/runner/adder_scoreboard.sv(39) @ 225: uvm_test_top.env_h.scoreboard_h [write_drv STIM] in1=0001  in2=0111 rst=0
UVM_INFO /home/runner/adder_scoreboard.sv(55) @ 230: uvm_test_top.env_h.scoreboard_h [write_mon OUT ] in1=0001  in2=0111 rst=0  out=   08 
UVM_INFO /home/runner/adder_scoreboard.sv(69) @ 230: uvm_test_top.env_h.scoreboard_h [PASS ] in1=0001  in2=0111 rst=0  out=   08 
UVM_INFO /home/runner/adder_scoreboard.sv(39) @ 235: uvm_test_top.env_h.scoreboard_h [write_drv STIM] in1=1111  in2=1101 rst=0
UVM_INFO /home/runner/adder_scoreboard.sv(55) @ 240: uvm_test_top.env_h.scoreboard_h [write_mon OUT ] in1=1111  in2=1101 rst=0  out=   1c 
UVM_INFO /home/runner/adder_scoreboard.sv(69) @ 240: uvm_test_top.env_h.scoreboard_h [PASS ] in1=1111  in2=1101 rst=0  out=   1c 
UVM_INFO /home/runner/adder_scoreboard.sv(39) @ 245: uvm_test_top.env_h.scoreboard_h [write_drv STIM] in1=1010  in2=1100 rst=0
UVM_INFO /home/runner/adder_scoreboard.sv(55) @ 250: uvm_test_top.env_h.scoreboard_h [write_mon OUT ] in1=1010  in2=1100 rst=0  out=   16 
UVM_INFO /home/runner/adder_scoreboard.sv(69) @ 250: uvm_test_top.env_h.scoreboard_h [PASS ] in1=1010  in2=1100 rst=0  out=   16 
UVM_INFO /home/runner/adder_scoreboard.sv(39) @ 255: uvm_test_top.env_h.scoreboard_h [write_drv STIM] in1=0010  in2=0100 rst=0
UVM_INFO /home/runner/adder_scoreboard.sv(55) @ 260: uvm_test_top.env_h.scoreboard_h [write_mon OUT ] in1=0010  in2=0100 rst=0  out=   06 
UVM_INFO /home/runner/adder_scoreboard.sv(69) @ 260: uvm_test_top.env_h.scoreboard_h [PASS ] in1=0010  in2=0100 rst=0  out=   06 
UVM_INFO /home/runner/adder_scoreboard.sv(39) @ 265: uvm_test_top.env_h.scoreboard_h [write_drv STIM] in1=0111  in2=0101 rst=0
UVM_INFO /home/runner/adder_scoreboard.sv(55) @ 270: uvm_test_top.env_h.scoreboard_h [write_mon OUT ] in1=0111  in2=0101 rst=0  out=   0c 
UVM_INFO /home/runner/adder_scoreboard.sv(69) @ 270: uvm_test_top.env_h.scoreboard_h [PASS ] in1=0111  in2=0101 rst=0  out=   0c 
UVM_INFO /home/runner/adder_scoreboard.sv(39) @ 275: uvm_test_top.env_h.scoreboard_h [write_drv STIM] in1=1001  in2=1111 rst=0
UVM_INFO /home/runner/adder_scoreboard.sv(55) @ 280: uvm_test_top.env_h.scoreboard_h [write_mon OUT ] in1=1001  in2=1111 rst=0  out=   18 
UVM_INFO /home/runner/adder_scoreboard.sv(69) @ 280: uvm_test_top.env_h.scoreboard_h [PASS ] in1=1001  in2=1111 rst=0  out=   18 
UVM_INFO /home/runner/adder_scoreboard.sv(39) @ 285: uvm_test_top.env_h.scoreboard_h [write_drv STIM] in1=1000  in2=0010 rst=0
UVM_INFO /home/runner/adder_scoreboard.sv(55) @ 290: uvm_test_top.env_h.scoreboard_h [write_mon OUT ] in1=1000  in2=0010 rst=0  out=   0a 
UVM_INFO /home/runner/adder_scoreboard.sv(69) @ 290: uvm_test_top.env_h.scoreboard_h [PASS ] in1=1000  in2=0010 rst=0  out=   0a 
UVM_INFO /home/runner/adder_scoreboard.sv(39) @ 295: uvm_test_top.env_h.scoreboard_h [write_drv STIM] in1=0100  in2=1110 rst=0
UVM_INFO /home/runner/adder_scoreboard.sv(55) @ 300: uvm_test_top.env_h.scoreboard_h [write_mon OUT ] in1=0100  in2=1110 rst=0  out=   12 
UVM_INFO /home/runner/adder_scoreboard.sv(69) @ 300: uvm_test_top.env_h.scoreboard_h [PASS ] in1=0100  in2=1110 rst=0  out=   12 
UVM_INFO /home/runner/adder_scoreboard.sv(39) @ 305: uvm_test_top.env_h.scoreboard_h [write_drv STIM] in1=1101  in2=0011 rst=0
UVM_INFO /home/runner/adder_scoreboard.sv(55) @ 310: uvm_test_top.env_h.scoreboard_h [write_mon OUT ] in1=1101  in2=0011 rst=0  out=   10 
UVM_INFO /home/runner/adder_scoreboard.sv(69) @ 310: uvm_test_top.env_h.scoreboard_h [PASS ] in1=1101  in2=0011 rst=0  out=   10 
UVM_INFO /home/runner/adder_scoreboard.sv(39) @ 315: uvm_test_top.env_h.scoreboard_h [write_drv STIM] in1=0011  in2=0001 rst=0
UVM_INFO /home/runner/adder_scoreboard.sv(55) @ 320: uvm_test_top.env_h.scoreboard_h [write_mon OUT ] in1=0011  in2=0001 rst=0  out=   04 
UVM_INFO /home/runner/adder_scoreboard.sv(69) @ 320: uvm_test_top.env_h.scoreboard_h [PASS ] in1=0011  in2=0001 rst=0  out=   04 
UVM_INFO /home/runner/adder_scoreboard.sv(39) @ 325: uvm_test_top.env_h.scoreboard_h [write_drv STIM] in1=0110  in2=1000 rst=0
UVM_INFO /home/runner/adder_scoreboard.sv(55) @ 330: uvm_test_top.env_h.scoreboard_h [write_mon OUT ] in1=0110  in2=1000 rst=0  out=   0e 
UVM_INFO /home/runner/adder_scoreboard.sv(69) @ 330: uvm_test_top.env_h.scoreboard_h [PASS ] in1=0110  in2=1000 rst=0  out=   0e 
UVM_INFO /home/runner/adder_scoreboard.sv(39) @ 335: uvm_test_top.env_h.scoreboard_h [write_drv STIM] in1=0110  in2=1000 rst=0
UVM_INFO /home/runner/adder_scoreboard.sv(55) @ 340: uvm_test_top.env_h.scoreboard_h [write_mon OUT ] in1=0110  in2=1000 rst=0  out=   0e 
UVM_INFO /home/runner/adder_scoreboard.sv(69) @ 340: uvm_test_top.env_h.scoreboard_h [PASS ] in1=0110  in2=1000 rst=0  out=   0e 
UVM_INFO /home/runner/adder_scoreboard.sv(39) @ 345: uvm_test_top.env_h.scoreboard_h [write_drv STIM] in1=0011  in2=0001 rst=0
UVM_INFO /home/runner/adder_scoreboard.sv(55) @ 350: uvm_test_top.env_h.scoreboard_h [write_mon OUT ] in1=0011  in2=0001 rst=0  out=   04 
UVM_INFO /home/runner/adder_scoreboard.sv(69) @ 350: uvm_test_top.env_h.scoreboard_h [PASS ] in1=0011  in2=0001 rst=0  out=   04 
UVM_INFO /home/runner/adder_scoreboard.sv(39) @ 355: uvm_test_top.env_h.scoreboard_h [write_drv STIM] in1=1101  in2=0011 rst=0
UVM_INFO /home/runner/adder_scoreboard.sv(55) @ 360: uvm_test_top.env_h.scoreboard_h [write_mon OUT ] in1=1101  in2=0011 rst=0  out=   10 
UVM_INFO /home/runner/adder_scoreboard.sv(69) @ 360: uvm_test_top.env_h.scoreboard_h [PASS ] in1=1101  in2=0011 rst=0  out=   10 
UVM_INFO /home/runner/adder_scoreboard.sv(39) @ 365: uvm_test_top.env_h.scoreboard_h [write_drv STIM] in1=0100  in2=1110 rst=0
UVM_INFO /home/runner/adder_scoreboard.sv(55) @ 370: uvm_test_top.env_h.scoreboard_h [write_mon OUT ] in1=0100  in2=1110 rst=0  out=   12 
UVM_INFO /home/runner/adder_scoreboard.sv(69) @ 370: uvm_test_top.env_h.scoreboard_h [PASS ] in1=0100  in2=1110 rst=0  out=   12 
UVM_INFO /home/runner/adder_scoreboard.sv(39) @ 375: uvm_test_top.env_h.scoreboard_h [write_drv STIM] in1=1000  in2=0010 rst=0
UVM_INFO /home/runner/adder_scoreboard.sv(55) @ 380: uvm_test_top.env_h.scoreboard_h [write_mon OUT ] in1=1000  in2=0010 rst=0  out=   0a 
UVM_INFO /home/runner/adder_scoreboard.sv(69) @ 380: uvm_test_top.env_h.scoreboard_h [PASS ] in1=1000  in2=0010 rst=0  out=   0a 
UVM_INFO /home/runner/adder_scoreboard.sv(39) @ 385: uvm_test_top.env_h.scoreboard_h [write_drv STIM] in1=1001  in2=1111 rst=0
UVM_INFO /home/runner/adder_scoreboard.sv(55) @ 390: uvm_test_top.env_h.scoreboard_h [write_mon OUT ] in1=1001  in2=1111 rst=0  out=   18 
UVM_INFO /home/runner/adder_scoreboard.sv(69) @ 390: uvm_test_top.env_h.scoreboard_h [PASS ] in1=1001  in2=1111 rst=0  out=   18 
UVM_INFO /home/runner/adder_scoreboard.sv(39) @ 395: uvm_test_top.env_h.scoreboard_h [write_drv STIM] in1=0111  in2=0101 rst=0
UVM_INFO /home/runner/adder_scoreboard.sv(55) @ 400: uvm_test_top.env_h.scoreboard_h [write_mon OUT ] in1=0111  in2=0101 rst=0  out=   0c 
UVM_INFO /home/runner/adder_scoreboard.sv(69) @ 400: uvm_test_top.env_h.scoreboard_h [PASS ] in1=0111  in2=0101 rst=0  out=   0c 
UVM_INFO /home/runner/adder_scoreboard.sv(39) @ 405: uvm_test_top.env_h.scoreboard_h [write_drv STIM] in1=0010  in2=0100 rst=0
UVM_INFO /home/runner/adder_scoreboard.sv(55) @ 410: uvm_test_top.env_h.scoreboard_h [write_mon OUT ] in1=0010  in2=0100 rst=0  out=   06 
UVM_INFO /home/runner/adder_scoreboard.sv(69) @ 410: uvm_test_top.env_h.scoreboard_h [PASS ] in1=0010  in2=0100 rst=0  out=   06 
UVM_INFO /home/runner/adder_scoreboard.sv(39) @ 415: uvm_test_top.env_h.scoreboard_h [write_drv STIM] in1=1010  in2=1100 rst=0
UVM_INFO /home/runner/adder_scoreboard.sv(55) @ 420: uvm_test_top.env_h.scoreboard_h [write_mon OUT ] in1=1010  in2=1100 rst=0  out=   16 
UVM_INFO /home/runner/adder_scoreboard.sv(69) @ 420: uvm_test_top.env_h.scoreboard_h [PASS ] in1=1010  in2=1100 rst=0  out=   16 
UVM_INFO /home/runner/adder_scoreboard.sv(39) @ 425: uvm_test_top.env_h.scoreboard_h [write_drv STIM] in1=1111  in2=1101 rst=0
UVM_INFO /home/runner/adder_scoreboard.sv(55) @ 430: uvm_test_top.env_h.scoreboard_h [write_mon OUT ] in1=1111  in2=1101 rst=0  out=   1c 
UVM_INFO /home/runner/adder_scoreboard.sv(69) @ 430: uvm_test_top.env_h.scoreboard_h [PASS ] in1=1111  in2=1101 rst=0  out=   1c 
UVM_INFO /home/runner/adder_scoreboard.sv(39) @ 435: uvm_test_top.env_h.scoreboard_h [write_drv STIM] in1=0001  in2=0111 rst=0
UVM_INFO /home/runner/adder_scoreboard.sv(55) @ 440: uvm_test_top.env_h.scoreboard_h [write_mon OUT ] in1=0001  in2=0111 rst=0  out=   08 
UVM_INFO /home/runner/adder_scoreboard.sv(69) @ 440: uvm_test_top.env_h.scoreboard_h [PASS ] in1=0001  in2=0111 rst=0  out=   08 
UVM_INFO /home/runner/adder_scoreboard.sv(39) @ 445: uvm_test_top.env_h.scoreboard_h [write_drv STIM] in1=0000  in2=1010 rst=0
UVM_INFO /home/runner/adder_scoreboard.sv(55) @ 450: uvm_test_top.env_h.scoreboard_h [write_mon OUT ] in1=0000  in2=1010 rst=0  out=   0a 
UVM_INFO /home/runner/adder_scoreboard.sv(69) @ 450: uvm_test_top.env_h.scoreboard_h [PASS ] in1=0000  in2=1010 rst=0  out=   0a 
UVM_INFO /home/runner/adder_scoreboard.sv(39) @ 455: uvm_test_top.env_h.scoreboard_h [write_drv STIM] in1=1100  in2=0110 rst=0
UVM_INFO /home/runner/adder_scoreboard.sv(55) @ 460: uvm_test_top.env_h.scoreboard_h [write_mon OUT ] in1=1100  in2=0110 rst=0  out=   12 
UVM_INFO /home/runner/adder_scoreboard.sv(69) @ 460: uvm_test_top.env_h.scoreboard_h [PASS ] in1=1100  in2=0110 rst=0  out=   12 
UVM_INFO /home/runner/adder_scoreboard.sv(39) @ 465: uvm_test_top.env_h.scoreboard_h [write_drv STIM] in1=0101  in2=1011 rst=0
UVM_INFO /home/runner/adder_scoreboard.sv(55) @ 470: uvm_test_top.env_h.scoreboard_h [write_mon OUT ] in1=0101  in2=1011 rst=0  out=   10 
UVM_INFO /home/runner/adder_scoreboard.sv(69) @ 470: uvm_test_top.env_h.scoreboard_h [PASS ] in1=0101  in2=1011 rst=0  out=   10 
UVM_INFO /home/runner/adder_scoreboard.sv(39) @ 475: uvm_test_top.env_h.scoreboard_h [write_drv STIM] in1=1011  in2=1001 rst=0
UVM_INFO /home/runner/adder_scoreboard.sv(55) @ 480: uvm_test_top.env_h.scoreboard_h [write_mon OUT ] in1=1011  in2=1001 rst=0  out=   14 
UVM_INFO /home/runner/adder_scoreboard.sv(69) @ 480: uvm_test_top.env_h.scoreboard_h [PASS ] in1=1011  in2=1001 rst=0  out=   14 
UVM_INFO /home/runner/adder_scoreboard.sv(39) @ 485: uvm_test_top.env_h.scoreboard_h [write_drv STIM] in1=1110  in2=0000 rst=0
UVM_INFO /home/runner/adder_scoreboard.sv(55) @ 490: uvm_test_top.env_h.scoreboard_h [write_mon OUT ] in1=1110  in2=0000 rst=0  out=   0e 
UVM_INFO /home/runner/adder_scoreboard.sv(69) @ 490: uvm_test_top.env_h.scoreboard_h [PASS ] in1=1110  in2=0000 rst=0  out=   0e 
UVM_INFO /home/runner/adder_scoreboard.sv(39) @ 495: uvm_test_top.env_h.scoreboard_h [write_drv STIM] in1=1110  in2=0000 rst=0
UVM_INFO /home/runner/adder_scoreboard.sv(55) @ 500: uvm_test_top.env_h.scoreboard_h [write_mon OUT ] in1=1110  in2=0000 rst=0  out=   0e 
UVM_INFO /home/runner/adder_scoreboard.sv(69) @ 500: uvm_test_top.env_h.scoreboard_h [PASS ] in1=1110  in2=0000 rst=0  out=   0e 
UVM_INFO /home/runner/adder_scoreboard.sv(39) @ 505: uvm_test_top.env_h.scoreboard_h [write_drv STIM] in1=1011  in2=1001 rst=0
UVM_INFO /home/runner/adder_scoreboard.sv(55) @ 510: uvm_test_top.env_h.scoreboard_h [write_mon OUT ] in1=1011  in2=1001 rst=0  out=   14 
UVM_INFO /home/runner/adder_scoreboard.sv(69) @ 510: uvm_test_top.env_h.scoreboard_h [PASS ] in1=1011  in2=1001 rst=0  out=   14 
UVM_INFO /home/runner/adder_scoreboard.sv(39) @ 515: uvm_test_top.env_h.scoreboard_h [write_drv STIM] in1=0101  in2=1011 rst=0
UVM_INFO /home/runner/adder_scoreboard.sv(55) @ 520: uvm_test_top.env_h.scoreboard_h [write_mon OUT ] in1=0101  in2=1011 rst=0  out=   10 
UVM_INFO /home/runner/adder_scoreboard.sv(69) @ 520: uvm_test_top.env_h.scoreboard_h [PASS ] in1=0101  in2=1011 rst=0  out=   10 
UVM_INFO /home/runner/adder_scoreboard.sv(39) @ 525: uvm_test_top.env_h.scoreboard_h [write_drv STIM] in1=1100  in2=0110 rst=0
UVM_INFO /home/runner/adder_scoreboard.sv(55) @ 530: uvm_test_top.env_h.scoreboard_h [write_mon OUT ] in1=1100  in2=0110 rst=0  out=   12 
UVM_INFO /home/runner/adder_scoreboard.sv(69) @ 530: uvm_test_top.env_h.scoreboard_h [PASS ] in1=1100  in2=0110 rst=0  out=   12 
UVM_INFO /home/runner/adder_scoreboard.sv(39) @ 535: uvm_test_top.env_h.scoreboard_h [write_drv STIM] in1=0000  in2=1010 rst=0
UVM_INFO /home/runner/adder_scoreboard.sv(55) @ 540: uvm_test_top.env_h.scoreboard_h [write_mon OUT ] in1=0000  in2=1010 rst=0  out=   0a 
UVM_INFO /home/runner/adder_scoreboard.sv(69) @ 540: uvm_test_top.env_h.scoreboard_h [PASS ] in1=0000  in2=1010 rst=0  out=   0a 
UVM_INFO /home/runner/adder_scoreboard.sv(39) @ 545: uvm_test_top.env_h.scoreboard_h [write_drv STIM] in1=0001  in2=0111 rst=0
UVM_INFO /home/runner/adder_scoreboard.sv(55) @ 550: uvm_test_top.env_h.scoreboard_h [write_mon OUT ] in1=0001  in2=0111 rst=0  out=   08 
UVM_INFO /home/runner/adder_scoreboard.sv(69) @ 550: uvm_test_top.env_h.scoreboard_h [PASS ] in1=0001  in2=0111 rst=0  out=   08 
UVM_INFO /home/runner/adder_scoreboard.sv(39) @ 555: uvm_test_top.env_h.scoreboard_h [write_drv STIM] in1=1111  in2=1101 rst=0
UVM_INFO /home/runner/adder_scoreboard.sv(55) @ 560: uvm_test_top.env_h.scoreboard_h [write_mon OUT ] in1=1111  in2=1101 rst=0  out=   1c 
UVM_INFO /home/runner/adder_scoreboard.sv(69) @ 560: uvm_test_top.env_h.scoreboard_h [PASS ] in1=1111  in2=1101 rst=0  out=   1c 
UVM_INFO /home/runner/adder_scoreboard.sv(39) @ 565: uvm_test_top.env_h.scoreboard_h [write_drv STIM] in1=1010  in2=1100 rst=0
UVM_INFO /home/runner/adder_scoreboard.sv(55) @ 570: uvm_test_top.env_h.scoreboard_h [write_mon OUT ] in1=1010  in2=1100 rst=0  out=   16 
UVM_INFO /home/runner/adder_scoreboard.sv(69) @ 570: uvm_test_top.env_h.scoreboard_h [PASS ] in1=1010  in2=1100 rst=0  out=   16 
UVM_INFO /home/runner/adder_scoreboard.sv(39) @ 575: uvm_test_top.env_h.scoreboard_h [write_drv STIM] in1=0010  in2=0100 rst=0
UVM_INFO /home/runner/adder_scoreboard.sv(55) @ 580: uvm_test_top.env_h.scoreboard_h [write_mon OUT ] in1=0010  in2=0100 rst=0  out=   06 
UVM_INFO /home/runner/adder_scoreboard.sv(69) @ 580: uvm_test_top.env_h.scoreboard_h [PASS ] in1=0010  in2=0100 rst=0  out=   06 
UVM_INFO /home/runner/adder_scoreboard.sv(39) @ 585: uvm_test_top.env_h.scoreboard_h [write_drv STIM] in1=0111  in2=0101 rst=0
UVM_INFO /home/runner/adder_scoreboard.sv(55) @ 590: uvm_test_top.env_h.scoreboard_h [write_mon OUT ] in1=0111  in2=0101 rst=0  out=   0c 
UVM_INFO /home/runner/adder_scoreboard.sv(69) @ 590: uvm_test_top.env_h.scoreboard_h [PASS ] in1=0111  in2=0101 rst=0  out=   0c 
UVM_INFO /home/runner/adder_scoreboard.sv(39) @ 595: uvm_test_top.env_h.scoreboard_h [write_drv STIM] in1=1001  in2=1111 rst=0
UVM_INFO /home/runner/adder_scoreboard.sv(55) @ 600: uvm_test_top.env_h.scoreboard_h [write_mon OUT ] in1=1001  in2=1111 rst=0  out=   18 
UVM_INFO /home/runner/adder_scoreboard.sv(69) @ 600: uvm_test_top.env_h.scoreboard_h [PASS ] in1=1001  in2=1111 rst=0  out=   18 
UVM_INFO /home/runner/adder_scoreboard.sv(39) @ 605: uvm_test_top.env_h.scoreboard_h [write_drv STIM] in1=1000  in2=0010 rst=0
UVM_INFO /home/runner/adder_scoreboard.sv(55) @ 610: uvm_test_top.env_h.scoreboard_h [write_mon OUT ] in1=1000  in2=0010 rst=0  out=   0a 
UVM_INFO /home/runner/adder_scoreboard.sv(69) @ 610: uvm_test_top.env_h.scoreboard_h [PASS ] in1=1000  in2=0010 rst=0  out=   0a 
UVM_INFO /home/runner/adder_scoreboard.sv(39) @ 615: uvm_test_top.env_h.scoreboard_h [write_drv STIM] in1=0100  in2=1110 rst=0
UVM_INFO /home/runner/adder_scoreboard.sv(55) @ 620: uvm_test_top.env_h.scoreboard_h [write_mon OUT ] in1=0100  in2=1110 rst=0  out=   12 
UVM_INFO /home/runner/adder_scoreboard.sv(69) @ 620: uvm_test_top.env_h.scoreboard_h [PASS ] in1=0100  in2=1110 rst=0  out=   12 
